<svg width="28" height="28" viewBox="0 0 28 28" fill="none" xmlns="http://www.w3.org/2000/svg">
<mask id="path-1-inside-1_41_53" fill="white">
<path fill-rule="evenodd" clip-rule="evenodd" d="M3.02472 1.36773C2.95882 1.39426 2.86443 1.47771 2.81505 1.55307C2.73766 1.67114 2.73345 1.74322 2.78453 2.07238C2.87821 2.67619 2.8787 2.6758 2.4931 2.30557C2.09071 1.91915 1.86791 1.86359 1.6502 2.0953C1.4326 2.32695 1.48723 2.53356 1.87311 2.9382L2.21491 3.29656L1.91412 3.25894C1.74869 3.23827 1.52716 3.20802 1.42177 3.19178C0.909898 3.11281 0.68639 3.82118 1.16184 4.01565C1.25979 4.05568 1.59322 4.12016 1.90286 4.15887C2.2125 4.19759 2.47741 4.24796 2.49157 4.27088C2.50573 4.29373 2.44552 4.41881 2.35786 4.5488C1.97198 5.12088 1.91773 5.96821 2.22497 6.62473C2.40254 7.00427 2.65055 7.27814 3.38177 7.90234L3.83027 8.28516L3.11326 8.3125C2.09087 8.35149 2.17345 8.15866 2.20101 10.4431C2.22163 12.1476 2.23208 12.3102 2.34905 12.7408C2.70786 14.0614 3.45456 15.1789 4.48504 15.9375L4.82459 16.1875H2.98409H1.14352L1.00932 16.3218C0.876155 16.4549 0.875062 16.4644 0.875062 17.5C0.875062 18.9129 0.76853 18.8125 2.26817 18.8125H3.39276L3.36389 18.9355C3.18145 19.7123 2.188 24.4495 2.18784 24.5435C2.18767 24.6125 2.24799 24.7294 2.32182 24.8032C2.44558 24.9271 2.49671 24.9375 2.97807 24.9375H3.50006V25.6782C3.50006 26.3919 3.50498 26.424 3.63432 26.5532L3.76852 26.6875H5.68756H7.6066L7.7408 26.5532C7.87014 26.424 7.87506 26.3919 7.87506 25.6782V24.9375H14.0001H20.1251V25.6782C20.1251 26.3919 20.13 26.424 20.2593 26.5532L20.3935 26.6875H22.3126H24.2316L24.3658 26.5532C24.4951 26.424 24.5001 26.3919 24.5001 25.6782V24.9375H25.0221C25.5034 24.9375 25.5545 24.9271 25.6783 24.8032C25.7521 24.7294 25.8125 24.6125 25.8123 24.5435C25.8121 24.4495 24.8187 19.7123 24.6362 18.9355L24.6074 18.8125H25.732C27.2316 18.8125 27.1251 18.9129 27.1251 17.5C27.1251 16.4644 27.124 16.4549 26.9908 16.3218L26.8566 16.1875H25.016H23.1755L23.5233 15.9328C24.5395 15.1885 25.2932 14.0577 25.6511 12.7408C25.768 12.3102 25.7785 12.1476 25.7991 10.4431C25.8259 8.22877 25.8642 8.3557 25.1548 8.3125L24.7059 8.28516L25.009 7.94588C25.808 7.05173 26.1889 5.80727 26.1254 4.29871C26.0943 3.55715 25.9069 2.64037 25.7319 2.37333C25.563 2.11548 24.3764 1.85894 23.3581 1.86009C22.3172 1.86129 21.2568 2.14523 20.5235 2.6192C19.6243 3.20037 18.36 4.77941 17.7482 6.08541L17.5234 6.56529L17.268 6.26959C16.9703 5.92473 16.4413 5.51272 16.0472 5.31874L15.7701 5.18235L16.0553 4.89716C16.3635 4.58894 16.6251 4.13558 16.6251 3.9095C16.6251 3.72723 16.3969 3.5 16.2138 3.5C15.9907 3.5 15.8843 3.58395 15.7057 3.90042C15.4656 4.32573 15.0627 4.63154 14.6153 4.72812L14.4376 4.76651V3.61123C14.4376 2.45755 14.4374 2.4558 14.3033 2.32176C14.1257 2.14413 13.8744 2.14413 13.6968 2.32176C13.5627 2.4558 13.5626 2.45755 13.5626 3.61123V4.76651L13.3848 4.72812C12.9374 4.63154 12.5345 4.32573 12.2945 3.90042C12.1159 3.58395 12.0094 3.5 11.7863 3.5C11.6033 3.5 11.3751 3.72723 11.3751 3.9095C11.3751 4.1352 11.6364 4.58877 11.9433 4.89563L12.2269 5.17929L11.9287 5.33542C11.4643 5.57856 10.915 6.03728 10.5885 6.45449C10.4247 6.66384 10.2792 6.86607 10.2651 6.90391C10.2309 6.99557 10.277 7.04534 8.47837 4.97656C7.62853 3.99902 6.8436 3.11724 6.73417 3.017C6.04243 2.38345 4.92019 2.2855 4.11262 2.78819C3.97366 2.87465 3.84459 2.93595 3.82589 2.92436C3.80713 2.91277 3.76016 2.64994 3.72144 2.3403C3.63689 1.66425 3.55409 1.4397 3.36241 1.36686C3.19627 1.3037 3.18364 1.3037 3.02472 1.36773ZM22.7227 2.76495C22.6626 2.77878 22.478 2.81695 22.3126 2.84971C22.0002 2.91162 21.3695 3.14092 21.208 3.25139C21.1271 3.30668 21.3468 3.54654 22.9083 5.10748L24.7015 6.90009L24.8483 6.59017C25.157 5.93819 25.2375 5.51928 25.2321 4.59375C25.2283 3.94439 25.2029 3.65657 25.1234 3.36328L25.0196 2.98047L24.6368 2.88099C24.2687 2.78534 22.9746 2.70687 22.7227 2.76495ZM4.83991 3.41622C4.71959 3.46139 4.61098 3.49874 4.59851 3.49918C4.58605 3.49962 4.25787 3.81374 3.86926 4.19727C3.02838 5.02698 2.92962 5.18618 2.9277 5.71484C2.92557 6.27949 3.02264 6.41167 4.19098 7.43515L5.19258 8.3125H7.68223C9.05155 8.3125 10.1719 8.29817 10.1719 8.28073C10.1719 8.25398 9.22639 7.15646 8.90587 6.81105C8.80847 6.70611 8.79704 6.71366 8.26652 7.23488C7.81004 7.68338 7.69913 7.76563 7.55098 7.76563C7.45457 7.76563 7.33065 7.74151 7.27563 7.71209C7.15565 7.64788 7.04655 7.36231 7.09177 7.23089C7.1096 7.1791 7.37073 6.88641 7.67201 6.58055L8.21987 6.02438L7.6457 5.3708L7.07159 4.71729L6.47047 5.31174C5.93694 5.83942 5.84791 5.90625 5.67859 5.90625C5.43179 5.90625 5.25006 5.72146 5.25006 5.4705C5.25006 5.31136 5.32843 5.20849 5.85994 4.66977L6.46981 4.05163L6.32292 3.85908C5.99665 3.43137 5.32991 3.23225 4.83991 3.41622ZM23.1916 3.58941C23.0257 3.80029 23.0452 4.00936 23.2465 4.17873C23.4331 4.33573 23.5203 4.35083 23.697 4.25671C23.8726 4.16314 23.9495 4.0407 23.9514 3.85131C23.9554 3.47413 23.4258 3.29159 23.1916 3.58941ZM19.9538 4.35138C19.1688 5.26406 18.5581 6.29267 18.2503 7.22077C18.1162 7.62535 18.1152 7.63919 18.2021 7.97273L18.2907 8.3125H20.8175H23.3442L23.7308 7.9724C23.9433 7.78531 24.1172 7.61835 24.1172 7.6014C24.1172 7.58439 23.983 7.43794 23.819 7.27595L23.5208 6.98141L23.2784 7.2048C22.8231 7.62442 22.3846 7.74348 21.8941 7.58056C20.9075 7.25282 20.664 6.06982 21.4317 5.33378L21.6581 5.11673L21.0428 4.4998C20.7045 4.16046 20.4117 3.88281 20.3923 3.88281C20.3728 3.88281 20.1755 4.09363 19.9538 4.35138ZM13.4161 5.74755C12.501 5.90034 11.6291 6.46795 11.1044 7.25249L10.8284 7.66511L11.1099 7.9888L11.3915 8.3125H14.3859H17.3805L17.3503 8.18945C17.2848 7.92236 17.011 7.3932 16.7713 7.07044C16.0234 6.06353 14.6849 5.53574 13.4161 5.74755ZM22.0786 5.94858C21.8161 6.21731 21.7956 6.49206 22.0246 6.6722C22.2233 6.82845 22.4455 6.78256 22.6946 6.53379L22.8852 6.34342L22.5836 6.04182L22.282 5.74016L22.0786 5.94858ZM3.06256 9.625V10.0625H10.8033H18.5441L18.6783 10.1968C18.8559 10.3743 18.8559 10.6257 18.6783 10.8032L18.5441 10.9375H10.7952H3.04616L3.07875 11.5254C3.18096 13.3683 4.15806 14.8791 5.75751 15.6671C6.03483 15.8038 6.47096 15.9706 6.72662 16.0379L7.19147 16.1602H14.0001H20.8087L21.2735 16.0371C22.6794 15.6647 23.8147 14.7439 24.4256 13.4805C24.7317 12.8474 24.8806 12.26 24.9214 11.5254L24.954 10.9375H22.455H19.956L19.8218 10.8032C19.6442 10.6257 19.6442 10.3743 19.8218 10.1968L19.956 10.0625H22.4468H24.9376V9.625V9.1875H14.0001H3.06256V9.625ZM1.75006 17.5V17.9375H14.0001H26.2501V17.5V17.0625H14.0001H1.75006V17.5ZM3.75015 21.3694C3.45155 22.7754 3.19666 23.9566 3.18375 23.9941C3.16499 24.0487 5.35211 24.0625 14.0001 24.0625C22.648 24.0625 24.8351 24.0487 24.8164 23.9941C24.8035 23.9566 24.5486 22.7754 24.25 21.3694L23.7071 18.8129H14.0001H4.29303L3.75015 21.3694ZM4.94682 19.8218L4.81256 19.956V21.4375V22.919L4.94682 23.0532L5.08102 23.1875H10.2813H15.4816L15.6158 23.0532L15.7501 22.919V21.4375V19.956L15.6158 19.8218L15.4816 19.6875H10.2813H5.08102L4.94682 19.8218ZM16.7593 19.8218L16.6251 19.956V21.4375V22.919L16.7593 23.0532C16.8439 23.1379 16.956 23.1875 17.0626 23.1875C17.1691 23.1875 17.2812 23.1379 17.3658 23.0532C17.4762 22.9429 17.5001 22.8649 17.5001 22.6146V22.3101L18.0828 22.7488C18.7293 23.2356 18.887 23.2821 19.1158 23.0532C19.267 22.9021 19.2914 22.6682 19.1732 22.5024C19.1308 22.4431 18.8117 22.1854 18.464 21.9297C18.1164 21.674 17.8319 21.4525 17.8317 21.4375C17.8317 21.4225 18.0664 21.2379 18.3532 21.0273C19.1182 20.4658 19.2501 20.3337 19.2501 20.1288C19.2501 19.9059 19.039 19.6875 18.8235 19.6875C18.7107 19.6875 18.4984 19.8133 18.0828 20.1262L17.5001 20.5649V20.2604C17.5001 20.0101 17.4762 19.9321 17.3658 19.8218C17.2812 19.7371 17.1691 19.6875 17.0626 19.6875C16.956 19.6875 16.8439 19.7371 16.7593 19.8218ZM20.2593 19.8218L20.1251 19.956V21.4375V22.919L20.2593 23.0532L20.3935 23.1875H21.6563H22.9191L23.0533 23.0532C23.184 22.9226 23.1876 22.8971 23.1876 22.0938C23.1876 21.2904 23.184 21.2649 23.0533 21.1343C22.9687 21.0496 22.8566 21 22.7501 21C22.6435 21 22.5314 21.0496 22.4468 21.1343C22.323 21.258 22.3126 21.3091 22.3126 21.7905V22.3125H21.6563H21.0001V21.4375V20.5625H21.5221C22.0034 20.5625 22.0545 20.5521 22.1783 20.4282C22.263 20.3436 22.3126 20.2315 22.3126 20.125C22.3126 20.0185 22.263 19.9064 22.1783 19.8218C22.0477 19.6911 22.0221 19.6875 21.2188 19.6875C20.4155 19.6875 20.39 19.6911 20.2593 19.8218ZM5.68756 21.4375V22.3125H10.2813H14.8751V21.4375V20.5625H10.2813H5.68756V21.4375ZM4.37506 25.375V25.8125H5.68756H7.00006V25.375V24.9375H5.68756H4.37506V25.375ZM21.0001 25.375V25.8125H22.3126H23.6251V25.375V24.9375H22.3126H21.0001V25.375Z"/>
</mask>
<path fill-rule="evenodd" clip-rule="evenodd" d="M3.02472 1.36773C2.95882 1.39426 2.86443 1.47771 2.81505 1.55307C2.73766 1.67114 2.73345 1.74322 2.78453 2.07238C2.87821 2.67619 2.8787 2.6758 2.4931 2.30557C2.09071 1.91915 1.86791 1.86359 1.6502 2.0953C1.4326 2.32695 1.48723 2.53356 1.87311 2.9382L2.21491 3.29656L1.91412 3.25894C1.74869 3.23827 1.52716 3.20802 1.42177 3.19178C0.909898 3.11281 0.68639 3.82118 1.16184 4.01565C1.25979 4.05568 1.59322 4.12016 1.90286 4.15887C2.2125 4.19759 2.47741 4.24796 2.49157 4.27088C2.50573 4.29373 2.44552 4.41881 2.35786 4.5488C1.97198 5.12088 1.91773 5.96821 2.22497 6.62473C2.40254 7.00427 2.65055 7.27814 3.38177 7.90234L3.83027 8.28516L3.11326 8.3125C2.09087 8.35149 2.17345 8.15866 2.20101 10.4431C2.22163 12.1476 2.23208 12.3102 2.34905 12.7408C2.70786 14.0614 3.45456 15.1789 4.48504 15.9375L4.82459 16.1875H2.98409H1.14352L1.00932 16.3218C0.876155 16.4549 0.875062 16.4644 0.875062 17.5C0.875062 18.9129 0.76853 18.8125 2.26817 18.8125H3.39276L3.36389 18.9355C3.18145 19.7123 2.188 24.4495 2.18784 24.5435C2.18767 24.6125 2.24799 24.7294 2.32182 24.8032C2.44558 24.9271 2.49671 24.9375 2.97807 24.9375H3.50006V25.6782C3.50006 26.3919 3.50498 26.424 3.63432 26.5532L3.76852 26.6875H5.68756H7.6066L7.7408 26.5532C7.87014 26.424 7.87506 26.3919 7.87506 25.6782V24.9375H14.0001H20.1251V25.6782C20.1251 26.3919 20.13 26.424 20.2593 26.5532L20.3935 26.6875H22.3126H24.2316L24.3658 26.5532C24.4951 26.424 24.5001 26.3919 24.5001 25.6782V24.9375H25.0221C25.5034 24.9375 25.5545 24.9271 25.6783 24.8032C25.7521 24.7294 25.8125 24.6125 25.8123 24.5435C25.8121 24.4495 24.8187 19.7123 24.6362 18.9355L24.6074 18.8125H25.732C27.2316 18.8125 27.1251 18.9129 27.1251 17.5C27.1251 16.4644 27.124 16.4549 26.9908 16.3218L26.8566 16.1875H25.016H23.1755L23.5233 15.9328C24.5395 15.1885 25.2932 14.0577 25.6511 12.7408C25.768 12.3102 25.7785 12.1476 25.7991 10.4431C25.8259 8.22877 25.8642 8.3557 25.1548 8.3125L24.7059 8.28516L25.009 7.94588C25.808 7.05173 26.1889 5.80727 26.1254 4.29871C26.0943 3.55715 25.9069 2.64037 25.7319 2.37333C25.563 2.11548 24.3764 1.85894 23.3581 1.86009C22.3172 1.86129 21.2568 2.14523 20.5235 2.6192C19.6243 3.20037 18.36 4.77941 17.7482 6.08541L17.5234 6.56529L17.268 6.26959C16.9703 5.92473 16.4413 5.51272 16.0472 5.31874L15.7701 5.18235L16.0553 4.89716C16.3635 4.58894 16.6251 4.13558 16.6251 3.9095C16.6251 3.72723 16.3969 3.5 16.2138 3.5C15.9907 3.5 15.8843 3.58395 15.7057 3.90042C15.4656 4.32573 15.0627 4.63154 14.6153 4.72812L14.4376 4.76651V3.61123C14.4376 2.45755 14.4374 2.4558 14.3033 2.32176C14.1257 2.14413 13.8744 2.14413 13.6968 2.32176C13.5627 2.4558 13.5626 2.45755 13.5626 3.61123V4.76651L13.3848 4.72812C12.9374 4.63154 12.5345 4.32573 12.2945 3.90042C12.1159 3.58395 12.0094 3.5 11.7863 3.5C11.6033 3.5 11.3751 3.72723 11.3751 3.9095C11.3751 4.1352 11.6364 4.58877 11.9433 4.89563L12.2269 5.17929L11.9287 5.33542C11.4643 5.57856 10.915 6.03728 10.5885 6.45449C10.4247 6.66384 10.2792 6.86607 10.2651 6.90391C10.2309 6.99557 10.277 7.04534 8.47837 4.97656C7.62853 3.99902 6.8436 3.11724 6.73417 3.017C6.04243 2.38345 4.92019 2.2855 4.11262 2.78819C3.97366 2.87465 3.84459 2.93595 3.82589 2.92436C3.80713 2.91277 3.76016 2.64994 3.72144 2.3403C3.63689 1.66425 3.55409 1.4397 3.36241 1.36686C3.19627 1.3037 3.18364 1.3037 3.02472 1.36773ZM22.7227 2.76495C22.6626 2.77878 22.478 2.81695 22.3126 2.84971C22.0002 2.91162 21.3695 3.14092 21.208 3.25139C21.1271 3.30668 21.3468 3.54654 22.9083 5.10748L24.7015 6.90009L24.8483 6.59017C25.157 5.93819 25.2375 5.51928 25.2321 4.59375C25.2283 3.94439 25.2029 3.65657 25.1234 3.36328L25.0196 2.98047L24.6368 2.88099C24.2687 2.78534 22.9746 2.70687 22.7227 2.76495ZM4.83991 3.41622C4.71959 3.46139 4.61098 3.49874 4.59851 3.49918C4.58605 3.49962 4.25787 3.81374 3.86926 4.19727C3.02838 5.02698 2.92962 5.18618 2.9277 5.71484C2.92557 6.27949 3.02264 6.41167 4.19098 7.43515L5.19258 8.3125H7.68223C9.05155 8.3125 10.1719 8.29817 10.1719 8.28073C10.1719 8.25398 9.22639 7.15646 8.90587 6.81105C8.80847 6.70611 8.79704 6.71366 8.26652 7.23488C7.81004 7.68338 7.69913 7.76563 7.55098 7.76563C7.45457 7.76563 7.33065 7.74151 7.27563 7.71209C7.15565 7.64788 7.04655 7.36231 7.09177 7.23089C7.1096 7.1791 7.37073 6.88641 7.67201 6.58055L8.21987 6.02438L7.6457 5.3708L7.07159 4.71729L6.47047 5.31174C5.93694 5.83942 5.84791 5.90625 5.67859 5.90625C5.43179 5.90625 5.25006 5.72146 5.25006 5.4705C5.25006 5.31136 5.32843 5.20849 5.85994 4.66977L6.46981 4.05163L6.32292 3.85908C5.99665 3.43137 5.32991 3.23225 4.83991 3.41622ZM23.1916 3.58941C23.0257 3.80029 23.0452 4.00936 23.2465 4.17873C23.4331 4.33573 23.5203 4.35083 23.697 4.25671C23.8726 4.16314 23.9495 4.0407 23.9514 3.85131C23.9554 3.47413 23.4258 3.29159 23.1916 3.58941ZM19.9538 4.35138C19.1688 5.26406 18.5581 6.29267 18.2503 7.22077C18.1162 7.62535 18.1152 7.63919 18.2021 7.97273L18.2907 8.3125H20.8175H23.3442L23.7308 7.9724C23.9433 7.78531 24.1172 7.61835 24.1172 7.6014C24.1172 7.58439 23.983 7.43794 23.819 7.27595L23.5208 6.98141L23.2784 7.2048C22.8231 7.62442 22.3846 7.74348 21.8941 7.58056C20.9075 7.25282 20.664 6.06982 21.4317 5.33378L21.6581 5.11673L21.0428 4.4998C20.7045 4.16046 20.4117 3.88281 20.3923 3.88281C20.3728 3.88281 20.1755 4.09363 19.9538 4.35138ZM13.4161 5.74755C12.501 5.90034 11.6291 6.46795 11.1044 7.25249L10.8284 7.66511L11.1099 7.9888L11.3915 8.3125H14.3859H17.3805L17.3503 8.18945C17.2848 7.92236 17.011 7.3932 16.7713 7.07044C16.0234 6.06353 14.6849 5.53574 13.4161 5.74755ZM22.0786 5.94858C21.8161 6.21731 21.7956 6.49206 22.0246 6.6722C22.2233 6.82845 22.4455 6.78256 22.6946 6.53379L22.8852 6.34342L22.5836 6.04182L22.282 5.74016L22.0786 5.94858ZM3.06256 9.625V10.0625H10.8033H18.5441L18.6783 10.1968C18.8559 10.3743 18.8559 10.6257 18.6783 10.8032L18.5441 10.9375H10.7952H3.04616L3.07875 11.5254C3.18096 13.3683 4.15806 14.8791 5.75751 15.6671C6.03483 15.8038 6.47096 15.9706 6.72662 16.0379L7.19147 16.1602H14.0001H20.8087L21.2735 16.0371C22.6794 15.6647 23.8147 14.7439 24.4256 13.4805C24.7317 12.8474 24.8806 12.26 24.9214 11.5254L24.954 10.9375H22.455H19.956L19.8218 10.8032C19.6442 10.6257 19.6442 10.3743 19.8218 10.1968L19.956 10.0625H22.4468H24.9376V9.625V9.1875H14.0001H3.06256V9.625ZM1.75006 17.5V17.9375H14.0001H26.2501V17.5V17.0625H14.0001H1.75006V17.5ZM3.75015 21.3694C3.45155 22.7754 3.19666 23.9566 3.18375 23.9941C3.16499 24.0487 5.35211 24.0625 14.0001 24.0625C22.648 24.0625 24.8351 24.0487 24.8164 23.9941C24.8035 23.9566 24.5486 22.7754 24.25 21.3694L23.7071 18.8129H14.0001H4.29303L3.75015 21.3694ZM4.94682 19.8218L4.81256 19.956V21.4375V22.919L4.94682 23.0532L5.08102 23.1875H10.2813H15.4816L15.6158 23.0532L15.7501 22.919V21.4375V19.956L15.6158 19.8218L15.4816 19.6875H10.2813H5.08102L4.94682 19.8218ZM16.7593 19.8218L16.6251 19.956V21.4375V22.919L16.7593 23.0532C16.8439 23.1379 16.956 23.1875 17.0626 23.1875C17.1691 23.1875 17.2812 23.1379 17.3658 23.0532C17.4762 22.9429 17.5001 22.8649 17.5001 22.6146V22.3101L18.0828 22.7488C18.7293 23.2356 18.887 23.2821 19.1158 23.0532C19.267 22.9021 19.2914 22.6682 19.1732 22.5024C19.1308 22.4431 18.8117 22.1854 18.464 21.9297C18.1164 21.674 17.8319 21.4525 17.8317 21.4375C17.8317 21.4225 18.0664 21.2379 18.3532 21.0273C19.1182 20.4658 19.2501 20.3337 19.2501 20.1288C19.2501 19.9059 19.039 19.6875 18.8235 19.6875C18.7107 19.6875 18.4984 19.8133 18.0828 20.1262L17.5001 20.5649V20.2604C17.5001 20.0101 17.4762 19.9321 17.3658 19.8218C17.2812 19.7371 17.1691 19.6875 17.0626 19.6875C16.956 19.6875 16.8439 19.7371 16.7593 19.8218ZM20.2593 19.8218L20.1251 19.956V21.4375V22.919L20.2593 23.0532L20.3935 23.1875H21.6563H22.9191L23.0533 23.0532C23.184 22.9226 23.1876 22.8971 23.1876 22.0938C23.1876 21.2904 23.184 21.2649 23.0533 21.1343C22.9687 21.0496 22.8566 21 22.7501 21C22.6435 21 22.5314 21.0496 22.4468 21.1343C22.323 21.258 22.3126 21.3091 22.3126 21.7905V22.3125H21.6563H21.0001V21.4375V20.5625H21.5221C22.0034 20.5625 22.0545 20.5521 22.1783 20.4282C22.263 20.3436 22.3126 20.2315 22.3126 20.125C22.3126 20.0185 22.263 19.9064 22.1783 19.8218C22.0477 19.6911 22.0221 19.6875 21.2188 19.6875C20.4155 19.6875 20.39 19.6911 20.2593 19.8218ZM5.68756 21.4375V22.3125H10.2813H14.8751V21.4375V20.5625H10.2813H5.68756V21.4375ZM4.37506 25.375V25.8125H5.68756H7.00006V25.375V24.9375H5.68756H4.37506V25.375ZM21.0001 25.375V25.8125H22.3126H23.6251V25.375V24.9375H22.3126H21.0001V25.375Z" fill="#0C20D3" fill-opacity="0.8" stroke="#0C20D3" stroke-opacity="0.8" stroke-width="5" mask="url(#path-1-inside-1_41_53)"/>
</svg>
